trump
…
new <- x %>%
  left_join(y, by = "president")

xent <- new %>%
  unnest_tokens(word, text) %>%
  inner_join(get_sentiments("nrc"))

## Joining, by = "word"

xent %>%
  group_by(party) %>%
  count(sentiment)

## # A tibble: 60 x 3
## # Groups:   party [6]
##    party      sentiment        n
##    <chr>      <chr>        <int>
##  1 Democratic anger        11145
##  2 Democratic anticipation 22608
##  3 Democratic disgust       7565
##  4 Democratic fear         19010
##  5 Democratic joy          16423
##  6 Democratic negative     29843
##  7 Democratic positive     58359
##  8 Democratic sadness      10502
##  9 Democratic surprise      7686
## 10 Democratic trust        40579
## # ... with 50 more rows
…
